…
    ## The following object is masked from 'package:lubridate':
    ## 
    ##     hms

# Logicals

``` r
flights %>% 
  mutate(delayed = arr_delay > 0) %>% 
  select(arr_delay, delayed)
```

    ## # A tibble: 336,776 × 2
    ##    arr_delay delayed
    ##        <dbl> <lgl>  
    ##  1        11 TRUE   
    ##  2        20 TRUE   
    ##  3        33 TRUE   
    ##  4       -18 FALSE  
    ##  5       -25 FALSE  
    ##  6        12 TRUE   
    ##  7        19 TRUE   
    ##  8       -14 FALSE  
    ##  9        -8 FALSE  
    ## 10         8 TRUE   
    ## # … with 336,766 more rows
…
